riscvassignment1/riscvassignment1.sim/sim_1/behav/xsim/fsm_wave.vcd
$date
   Sun Nov  2 13:25:44 2025
$end

$version
  2025.1.0
  $dumpfile ("fsm_wave.vcd") 
$end

$timescale
  1ps
$end

$scope module tb_fsm $end
$var reg 1 ! clk $end
$var reg 1 " reset $end
$var reg 1 # xin $end
$var wire 1 $ yout $end
$scope module uut $end
$var wire 1 % clk $end
$var wire 1 & reset $end
$var wire 1 ' xin $end
$var reg 1 ( yout $end
$var reg 3 ) cur_state [2:0] $end
$var reg 3 * next_state [2:0] $end
$upscope $end
$upscope $end
$enddefinitions $end

#0
$dumpvars
0!
1"
0#
0$
0%
1&
0'
0(
b0 )
b0 *
$end

#5000
1!
1%

#10000
0!
0"
0%
0&

#15000
1!
1%

#20000
0!
0%

#25000
1!
1%

#30000
0!
1#
0%
1'
b0 *

#35000
1!
1%

#40000
0!
0%

#45000
1!
1%

#50000
0!
0#
0%
0'

#55000
1!
1%

#60000
0!
1#
0%
1'
b0 *

#65000
1!
1%

#70000
0!
0%

#75000
1!
1%

#80000
0!
0#
0%
0'

#85000
1!
1%

#90000
0!
1#
0%
1'
b0 *

#95000
1!
1%

#100000
0!
0#
0%
0'

#105000
1!
1%

#110000
0!
1#
0%
1'
b0 *

#115000
1!
1%

#120000
0!
0%

#125000
1!
1%

#130000
0!
0#
0%
0'

#135000
1!
1%

#140000
0!
1#
0%
1'
b0 *

#145000
1!
1%

#150000
0!
0#
0%
0'

